/Users/rob/.julia/dev/BHAtp/examples
WOB: 40, Incl: 30
Dalpha: 2.345736005452713
Errors (1): 3.451630099296476
Errors (100): 0.04307713288396116
Errors (1000): 0.0015680657094699583
Errors (5000): 4.235266575286145e-5
Errors (8873): 9.996911725313725e-8

WOB: 40000.0, Incl: 30.0
Force on bit: 821.6937
New dalpha: 0.5
Errors (1): 3.429420545633275
Errors (100): 0.04288685491874664
Errors (1000): 0.0017511800297887693
Errors (5000): 1.2580616091931731e-6
Errors (8754): 9.995362275251375e-8

WOB: 40000.0, Incl: 30.0
Force on bit: 670.56424
New dalpha: 2.718509349533837
Errors (1): 3.4038074788893993
Errors (100): 0.04388067030901121
Errors (1000): 0.0012724589348280043
Errors (5000): 1.2634496693953828e-6
Errors (8603): 9.993609772515783e-8
